%!PS-Adobe-3.0 EPSF-3.0 
%%BoundingBox: 0 0 414 88
%%Pages: 0
%%Creator: Sun Microsystems, Inc.
%%Title: none
%%CreationDate: none
%%LanguageLevel: 2
%%EndComments
%%BeginProlog
%%BeginResource: procset SDRes-Prolog 1.0 0
/b4_inc_state save def
/dict_count countdictstack def
/op_count count 1 sub def
userdict begin
0 setgray 0 setlinecap 1 setlinewidth 0 setlinejoin 10 setmiterlimit[] 0 setdash newpath
/languagelevel where {pop languagelevel 1 ne {false setstrokeadjust false setoverprint} if} if
/bdef {bind def} bind def
/c {setrgbcolor} bdef
/l {neg lineto} bdef
/rl {neg rlineto} bdef
/lc {setlinecap} bdef
/lj {setlinejoin} bdef
/lw {setlinewidth} bdef
/ml {setmiterlimit} bdef
/ld {setdash} bdef
/m {neg moveto} bdef
/ct {6 2 roll neg 6 2 roll neg 6 2 roll neg curveto} bdef
/r {rotate} bdef
/t {neg translate} bdef
/s {scale} bdef
/sw {show} bdef
/gs {gsave} bdef
/gr {grestore} bdef
/f {findfont dup length dict begin
{1 index /FID ne {def} {pop pop} ifelse} forall /Encoding ISOLatin1Encoding def
currentdict end /NFont exch definefont pop /NFont findfont} bdef
/p {closepath} bdef
/sf {scalefont setfont} bdef
/ef {eofill}bdef
/pc {closepath stroke}bdef
/ps {stroke}bdef
/pum {matrix currentmatrix}bdef
/pom {setmatrix}bdef
/bs {/aString exch def /nXOfs exch def /nWidth exch def currentpoint nXOfs 0 rmoveto pum nWidth aString stringwidth pop div 1 scale aString show pom moveto} bdef
%%EndResource
%%EndProlog
%%BeginSetup
%%EndSetup
%%Page: 1 1
%%BeginPageSetup
%%EndPageSetup
pum
0.02831 0.02824 s 
0 -3116 t
/tm matrix currentmatrix def
gs
tm setmatrix
-423 -423 t 
1 1 s 
423 423 m 15043 423 l 15043 3538 l 423 3538 l 423 423 l eoclip newpath
gs
0 0 m 14620 0 l 14620 3115 l 0 3115 l 0 0 l eoclip newpath
423 423 m 15044 423 l 15044 3539 l 423 3539 l 423 423 l eoclip newpath
gs
gs
pum
1428 2541 t
0.003 0.003 0.003 c 837 -748 m  808 -883 727 -951 594 -951 ct 502 -951 430 -916 379 -845 ct 
327 -775 301 -677 301 -552 ct 301 -429 326 -333 376 -264 ct 427 -194 497 -160 587 -160 ct 
659 -160 717 -179 760 -219 ct 804 -258 829 -314 837 -386 ct 1063 -386 l  1056 -257 1009 -154 922 -78 ct 
835 -2 721 36 580 36 ct 423 36 299 -17 206 -123 ct 114 -229 68 -373 68 -555 ct 
68 -738 115 -883 208 -990 ct 301 -1096 427 -1150 587 -1150 ct 720 -1150 830 -1114 915 -1043 ct 
1000 -971 1048 -873 1058 -748 ct 837 -748 l  p ef
1589 -852 m  1721 -852 1823 -812 1896 -733 ct 1969 -654 2005 -544 2005 -402 ct 
2005 -267 1968 -161 1893 -82 ct 1819 -3 1718 36 1591 36 ct 1461 36 1360 -4 1287 -83 ct 
1213 -162 1176 -270 1176 -408 ct 1176 -546 1213 -654 1287 -733 ct 1360 -812 1461 -852 1589 -852 ct 
p
1591 -677 m  1532 -677 1484 -652 1448 -602 ct 1412 -552 1394 -488 1394 -408 ct 
1394 -328 1412 -264 1448 -214 ct 1484 -164 1532 -139 1591 -139 ct 1649 -139 1696 -164 1733 -213 ct 
1769 -262 1788 -326 1788 -405 ct 1788 -488 1770 -554 1734 -603 ct 1699 -652 1651 -677 1591 -677 ct 
p ef
2168 -838 m  2385 -838 l  2385 -717 l  2445 -807 2529 -852 2636 -852 ct 2725 -852 2795 -827 2844 -776 ct 
2893 -725 2917 -654 2917 -562 ct 2917 0 l  2700 0 l  2700 -517 l  2700 -617 2654 -667 2560 -667 ct 
2508 -667 2465 -652 2433 -622 ct 2401 -592 2385 -552 2385 -503 ct 2385 0 l  2168 0 l 
2168 -838 l  p ef
3465 -677 m  3347 -677 3288 -585 3288 -402 ct 3288 -320 3304 -256 3335 -209 ct 
3367 -163 3410 -139 3465 -139 ct 3507 -139 3541 -151 3564 -174 ct 3588 -198 3607 -236 3620 -290 ct 
3828 -290 l  3818 -190 3780 -110 3714 -52 ct 3648 7 3565 36 3463 36 ct 3339 36 3243 -2 3174 -79 ct 
3105 -155 3071 -263 3071 -402 ct 3071 -545 3105 -655 3175 -734 ct 3244 -813 3341 -852 3467 -852 ct 
3571 -852 3656 -823 3720 -765 ct 3785 -707 3821 -627 3828 -524 ct 3620 -524 l 
3608 -579 3590 -618 3567 -642 ct 3543 -665 3509 -677 3465 -677 ct p ef
4304 -852 m  4340 -852 4376 -848 4410 -840 ct 4444 -831 4479 -816 4514 -795 ct 
4550 -773 4581 -745 4608 -712 ct 4634 -678 4655 -633 4672 -578 ct 4689 -523 4697 -459 4697 -388 ct 
4697 -376 4696 -363 4695 -351 ct 4133 -351 l  4134 -319 4137 -291 4142 -268 ct 
4147 -244 4155 -221 4167 -199 ct 4179 -177 4196 -160 4220 -148 ct 4243 -136 4272 -130 4307 -130 ct 
4390 -130 4445 -165 4473 -236 ct 4687 -236 l  4664 -153 4617 -87 4546 -38 ct 
4476 11 4394 36 4299 36 ct 4181 36 4087 -3 4019 -80 ct 3950 -157 3916 -263 3916 -397 ct 
3916 -538 3951 -649 4020 -730 ct 4089 -811 4184 -852 4304 -852 ct p
4470 -495 m  4465 -556 4448 -603 4420 -636 ct 4391 -669 4352 -686 4301 -686 ct 
4206 -686 4151 -622 4137 -495 ct 4470 -495 l  p ef
5286 -853 m  5392 -853 5476 -810 5541 -725 ct 5605 -640 5637 -534 5637 -407 ct 
5637 -280 5603 -174 5537 -90 ct 5470 -5 5386 37 5286 37 ct 5183 37 5105 -9 5053 -100 ct 
5053 338 l  4836 338 l  4836 -838 l  5053 -838 l  5053 -714 l  5105 -807 5183 -853 5286 -853 ct 
p
5369 -597 m  5336 -646 5291 -671 5236 -671 ct 5182 -671 5137 -647 5104 -598 ct 
5070 -549 5053 -486 5053 -407 ct 5053 -328 5070 -265 5104 -217 ct 5137 -169 5182 -145 5236 -145 ct 
5290 -145 5334 -169 5368 -218 ct 5402 -266 5420 -328 5420 -404 ct 5420 -484 5403 -548 5369 -597 ct 
p ef
6161 -820 m  6161 -676 l  6040 -676 l  6040 -220 l  6040 -183 6045 -158 6054 -146 ct 
6063 -134 6083 -129 6111 -129 ct 6123 -129 6139 -130 6161 -133 ct 6161 19 l 
6126 30 6084 36 6035 36 ct 5894 36 5823 -30 5823 -161 ct 5823 -676 l  5716 -676 l 
5716 -820 l  5823 -820 l  5823 -1046 l  6040 -1046 l  6040 -820 l  6161 -820 l 
p ef
7244 -326 m  7244 -289 7237 -252 7225 -217 ct 7213 -182 7193 -147 7165 -113 ct 
7138 -79 7097 -52 7042 -31 ct 6987 -10 6922 0 6846 0 ct 6337 0 l  6337 -1131 l 
6842 -1131 l  6912 -1131 6973 -1121 7024 -1100 ct 7075 -1079 7114 -1053 7139 -1020 ct 
7164 -987 7183 -956 7194 -925 ct 7205 -894 7211 -863 7211 -833 ct 7211 -784 7199 -743 7175 -707 ct 
7152 -672 7112 -637 7056 -600 ct 7181 -527 7244 -435 7244 -326 ct p
6570 -937 m  6570 -681 l  6823 -681 l  6933 -681 6988 -723 6988 -808 ct 6988 -894 6933 -937 6823 -937 ct 
6570 -937 l  p
6570 -487 m  6570 -194 l  6848 -194 l  6963 -194 7020 -243 7020 -340 ct 7020 -438 6963 -487 6848 -487 ct 
6570 -487 l  p ef
7630 36 m  7553 36 7492 13 7445 -33 ct 7399 -79 7375 -140 7375 -216 ct 7375 -364 7458 -451 7622 -479 ct 
7709 -495 l  7727 -495 7746 -497 7767 -501 ct 7787 -505 7806 -510 7823 -515 ct 
7840 -521 7855 -530 7866 -543 ct 7877 -556 7883 -572 7883 -592 ct 7883 -648 7841 -677 7757 -677 ct 
7703 -677 7666 -668 7644 -652 ct 7622 -635 7609 -605 7604 -562 ct 7394 -562 l 
7408 -755 7527 -852 7753 -852 ct 7981 -852 8096 -766 8096 -594 ct 8096 -129 l 
8096 -90 8112 -56 8145 -26 ct 8145 0 l  7909 0 l  7893 -20 7885 -48 7885 -83 ct 
7808 -4 7723 36 7630 36 ct p
7883 -337 m  7883 -396 l  7863 -386 7833 -377 7791 -369 ct 7717 -355 l  7671 -346 7639 -332 7621 -315 ct 
7602 -297 7593 -272 7593 -240 ct 7593 -209 7603 -185 7625 -167 ct 7646 -148 7674 -139 7711 -139 ct 
7766 -139 7808 -156 7838 -191 ct 7868 -225 7883 -273 7883 -337 ct p ef
8454 -243 m  8461 -208 8476 -181 8498 -163 ct 8520 -144 8562 -135 8624 -135 ct 
8675 -135 8715 -142 8743 -156 ct 8772 -171 8786 -191 8786 -217 ct 8786 -234 8780 -247 8769 -257 ct 
8759 -268 8740 -277 8713 -285 ct 8454 -366 l  8441 -367 8425 -372 8405 -381 ct 
8385 -391 8364 -401 8344 -413 ct 8324 -425 8307 -445 8292 -473 ct 8278 -501 8271 -534 8271 -572 ct 
8271 -658 8301 -726 8363 -776 ct 8424 -827 8508 -852 8615 -852 ct 8728 -852 8816 -827 8880 -776 ct 
8945 -726 8978 -657 8980 -568 ct 8770 -568 l  8769 -643 8717 -681 8613 -681 ct 
8575 -681 8545 -674 8522 -660 ct 8499 -646 8488 -627 8488 -603 ct 8488 -587 8493 -574 8503 -565 ct 
8514 -557 8534 -548 8564 -538 ct 8839 -459 l  8948 -427 9003 -357 9003 -248 ct 
9003 -216 8997 -185 8986 -154 ct 8975 -124 8956 -93 8931 -63 ct 8906 -33 8868 -9 8817 9 ct 
8766 27 8706 36 8637 36 ct 8379 36 8247 -57 8241 -243 ct 8454 -243 l  p ef
9481 -852 m  9517 -852 9553 -848 9587 -840 ct 9621 -831 9656 -816 9691 -795 ct 
9727 -773 9758 -745 9785 -712 ct 9811 -678 9832 -633 9849 -578 ct 9866 -523 9874 -459 9874 -388 ct 
9874 -376 9873 -363 9872 -351 ct 9310 -351 l  9311 -319 9314 -291 9319 -268 ct 
9324 -244 9332 -221 9344 -199 ct 9356 -177 9373 -160 9397 -148 ct 9420 -136 9449 -130 9484 -130 ct 
9567 -130 9622 -165 9650 -236 ct 9864 -236 l  9841 -153 9794 -87 9723 -38 ct 
9653 11 9571 36 9476 36 ct 9358 36 9264 -3 9196 -80 ct 9127 -157 9093 -263 9093 -397 ct 
9093 -538 9128 -649 9197 -730 ct 9266 -811 9361 -852 9481 -852 ct p
9647 -495 m  9642 -556 9625 -603 9597 -636 ct 9568 -669 9529 -686 9478 -686 ct 
9383 -686 9328 -622 9314 -495 ct 9647 -495 l  p ef
11234 -677 m  11116 -677 11057 -585 11057 -402 ct 11057 -320 11073 -256 11104 -209 ct 
11136 -163 11179 -139 11234 -139 ct 11276 -139 11310 -151 11333 -174 ct 11357 -198 11376 -236 11389 -290 ct 
11597 -290 l  11587 -190 11549 -110 11483 -52 ct 11417 7 11334 36 11232 36 ct 
11108 36 11012 -2 10943 -79 ct 10874 -155 10840 -263 10840 -402 ct 10840 -545 10874 -655 10944 -734 ct 
11013 -813 11110 -852 11236 -852 ct 11340 -852 11425 -823 11489 -765 ct 11554 -707 11590 -627 11597 -524 ct 
11389 -524 l  11377 -579 11359 -618 11336 -642 ct 11312 -665 11278 -677 11234 -677 ct 
p ef
12097 -677 m  11979 -677 11920 -585 11920 -402 ct 11920 -320 11936 -256 11967 -209 ct 
11999 -163 12042 -139 12097 -139 ct 12139 -139 12173 -151 12196 -174 ct 12220 -198 12239 -236 12252 -290 ct 
12460 -290 l  12450 -190 12412 -110 12346 -52 ct 12280 7 12197 36 12095 36 ct 
11971 36 11875 -2 11806 -79 ct 11737 -155 11703 -263 11703 -402 ct 11703 -545 11737 -655 11807 -734 ct 
11876 -813 11973 -852 12099 -852 ct 12203 -852 12288 -823 12352 -765 ct 12417 -707 12453 -627 12460 -524 ct 
12252 -524 l  12240 -579 12222 -618 12199 -642 ct 12175 -665 12141 -677 12097 -677 ct 
p ef
pom
gr
gr
254 lw 1 lj 0.140 0.003 0.863 c 6541 2963 m  14310 2963 l  14314 1025 l 
11820 1021 l  11820 1909 l  ps
1.000 0.402 0.203 c 11816 2586 m  11648 2586 11512 2453 11512 2289 ct 11512 2125 11648 1992 11816 1992 ct 
11984 1992 12120 2125 12120 2289 ct 12120 2453 11984 2586 11816 2586 ct p ef
0.140 0.003 0.863 c 6187 2963 m  1157 2963 l  1156 1031 l  11506 1023 l 
ps
gr
gs
0 0 m 14620 0 l 14620 3115 l 0 3115 l 0 0 l eoclip newpath
gr
gr
0 3116 t 
pom
count op_count sub {pop} repeat countdictstack dict_count sub {end} repeat b4_inc_state restore
%%PageTrailer
%%Trailer
%%EOF
